{
  "posts": [
    {
      "id": 1,
      "title": "json-server",
      "author": "typicode"
    }
  ],
  "comments": [
    {
      "id": 1,
      "body": "some comment",
      "postId": 1
    }
  ],
  "profile": {
    "name": "typicode"
  },
  "people": [
    {
      "id": 2,
      "firstName": "Lucy",
      "lastName": "Jenkins",
      "favoriteAnimal": "Parrot"
    },
    {
      "id": 3,
      "firstName": "Sal",
      "lastName": "Struthers",
      "favoriteAnimal": "Giraffe"
    }
  ]
}